Datestamp	Timestamp	Tmp36	Right Ear	Left Ear	Heart Rate - Left	Heart Rate - Right
2018_04_13	09_45_20.276153:	:43.134765625	40.5978434517	41.530737372	:None	None
2018_04_13	09_46_46.105869:	:43.779296875	40.3611442119	41.4153260469	:24.5	None
2018_04_13	09_48_12.425876:	:43.779296875	40.2422646683	41.1834820576	:None	None
2018_04_13	09_49_38.245867:	:44.1015625	40.2422646683	40.12302973	:84.5	200.0
2018_04_13	09_50_46.847201:	:44.423828125	40.12302973	40.5978434517	:96.0	160.0
2018_04_13	09_51_51.890300:	:44.74609375	39.9073699665	31.0237300818	:None	97.75
2018_04_13	09_53_10.294131:	:44.74609375	40.0034378008	28.4721928963	:None	None
2018_04_13	09_54_38.435880:	:45.068359375	40.12302973	34.6213697373	:None	None
2018_04_13	09_56_04.290370:	:45.068359375	40.2422646683	37.3234896201	:None	198.5
2018_04_13	09_57_26.244103:	:45.068359375	40.3611442119	38.8391863172	:None	72.25
2018_04_13	09_58_47.175865:	:45.390625	40.4796699473	39.5230406238	:52.0	None
2018_04_13	10_00_13.828763:	:45.390625	40.4796699473	40.0034378008	:101.0	51.0
2018_04_13	10_01_34.435851:	:45.712890625	40.4796699473	40.2422646683	:None	None
2018_04_13	10_03_00.515647:	:45.712890625	40.4796699473	40.5978434517	:None	52.0
2018_04_13	10_04_26.895669:	:45.712890625	40.4796699473	40.7156662929	:None	35.0
2018_04_13	10_05_54.305866:	:46.03515625	40.3611442119	37.8365427848	:None	46.0
2018_04_13	10_07_21.075861:	:46.03515625	40.2422646683	35.4083107438	:None	96.2
2018_04_13	10_08_39.039710:	:46.03515625	40.2422646683	36.6971607802	:None	38.4
2018_04_13	10_09_58.115881:	:46.03515625	40.12302973	34.8865508923	:166.5	79.4
2018_04_13	10_11_12.283248:	:46.03515625	33.1622093253	34.5324001641	:64.25	144.0
2018_04_13	10_12_25.116043:	:46.03515625	30.3086867431	36.2729909056	:None	56.0
2018_04_13	10_13_53.457607:	:46.03515625	28.2965159594	38.2413022662	:None	37.75
2018_04_13	10_15_15.529906:	:46.357421875	27.3985025669	39.0360579652	:95.0	30.6666666667
2018_04_13	10_16_34.908466:	:46.6796875	26.9368359074	39.5230406238	:81.6666666667	49.0
2018_04_13	10_17_57.224227:	:46.6796875	26.4664089697	39.8117204341	:45.75	28.5
2018_04_13	10_19_16.067867:	:46.6796875	26.1798435527	40.0034378008	:None	None
2018_04_13	10_20_41.918107:	:47.001953125	26.1798435527	40.0034378008	:48.3333333333	35.6
2018_04_13	10_21_59.401299:	:47.001953125	26.1798435527	38.1405801456	:None	101.4
2018_04_13	10_23_14.818006:	:46.6796875	29.6669832895	32.6901009217	:None	130.2
2018_04_13	10_24_30.904352:	:47.001953125	32.78515737	29.91531996	:116.25	171.8
2018_04_13	10_25_41.285770:	:46.6796875	34.5324001641	33.34885318	:103.0	None
2018_04_13	10_27_07.724340:	:47.001953125	35.2986617924	35.5176082562	:None	160.2
2018_04_13	10_28_26.795686:	:45.712890625	35.6265560166	34.3535887671	:None	44.4
2018_04_13	10_29_20.972124:	:not connected	not connected	not connected	:36.5	113.666666667
2018_04_13	10_31_01.774254:	:47.001953125	30.5147706624	29.9975148721	:None	53.0
2018_04_13	10_32_25.210926:	:47.001953125	28.0305785374	27.5807709623	:None	111.0
2018_04_13	10_33_49.972568:	:47.001953125	27.2148714171	26.5612071253	:None	68.0
2018_04_13	10_35_15.761312:	:46.6796875	26.7497302499	26.1798435527	:None	35.5
2018_04_13	10_36_41.853232:	:46.6796875	26.4664089697	25.9869700218	:45.6666666667	None
2018_04_13	10_38_04.887692:	:46.6796875	26.3712503649	25.7926128483	:101.0	None
2018_04_13	10_39_26.425880:	:46.6796875	26.275729251	25.5967548471	:None	109.0
2018_04_13	10_40_52.053507:	:46.6796875	26.1798435527	25.4982575932	:None	64.8
2018_04_13	10_42_08.460855:	:46.6796875	31.424590375	29.6669832895	:None	None
2018_04_13	10_43_34.289316:	:46.6796875	34.7100504482	33.4417100479	:176.0	73.4
2018_04_13	10_44_50.719108:	:not connected	not connected	not connected	:42.6666666667	154.0
2018_04_13	10_46_11.985397:	:47.32421875	35.5176082562	37.5296683725	:None	46.0
2018_04_13	10_47_33.862618:	:47.32421875	37.3234896201	38.6411105612	:None	None
2018_04_13	10_48_59.673822:	:47.32421875	37.9382018509	39.1340456746	:59.4	36.8
2018_04_13	10_50_11.249644:	:47.32421875	31.9179700447	37.0117977601	:None	125.2
2018_04_13	10_51_27.682644:	:47.32421875	29.0771092554	31.0237300818	:None	None
2018_04_13	10_52_53.742719:	:not connected	not connected	not connected	:None	None
2018_04_13	10_54_18.822605:	:47.646484375	27.2148714171	29.2471548679	:None	None
2018_04_13	10_55_44.665740:	:47.646484375	26.843459261	33.0684192277	:None	None
2018_04_13	10_57_10.502569:	:not connected	not connected	not connected	:None	None
2018_04_13	10_58_36.057416:	:47.32421875	26.4664089697	34.5324001641	:41.6666666667	153.4
2018_04_13	10_59_52.822568:	:47.32421875	31.424590375	36.3795367404	:None	None
2018_04_13	11_01_21.169841:	:47.32421875	34.5324001641	34.5324001641	:None	166.8
2018_04_13	11_02_38.092557:	:47.646484375	36.2729909056	36.16610683	:None	102.2
2018_04_13	11_03_53.420767:	:47.646484375	37.5296683725	34.3535887671	:None	194.5
2018_04_13	11_05_15.415358:	:47.32421875	38.2413022662	34.9743734073	:None	91.0
2018_04_13	11_06_40.885939:	:47.646484375	38.5416176854	34.263744088	:None	46.6
2018_04_13	11_07_58.295449:	:47.646484375	38.8391863172	33.9924368007	:176.0	65.6
2018_04_13	11_09_12.194504:	:47.646484375	38.9377719674	34.9743734073	:154.0	53.4
2018_04_13	11_10_21.032554:	:47.32421875	37.8365427848	36.2729909056	:80.2	38.5
2018_04_13	11_11_35.151010:	:47.32421875	38.6411105612	37.5296683725	:54.0	56.0
2018_04_13	11_12_58.002550:	:47.32421875	38.9377719674	38.4418196166	:None	None
2018_04_13	11_14_23.822546:	:47.32421875	39.1340456746	38.9377719674	:None	66.0
2018_04_13	11_15_46.822560:	:47.32421875	39.3291316439	39.3291316439	:59.0	None
2018_04_13	11_17_12.822560:	:47.32421875	39.4262325908	39.5230406238	:28.5	None
2018_04_13	11_18_37.072601:	:47.32421875	39.5230406238	39.715783234	:None	None
2018_04_13	11_20_02.872608:	:47.32421875	39.4262325908	39.715783234	:None	67.75
2018_04_13	11_21_21.854858:	:47.32421875	39.4262325908	39.6195570664	:None	None
2018_04_13	11_22_47.714939:	:47.646484375	39.4262325908	39.6195570664	:41.0	158.0
2018_04_13	11_24_01.712622:	:47.32421875	39.1340456746	34.8865508923	:44.6	51.6
2018_04_13	11_25_13.798946:	:not connected	not connected	not connected	:None	None
2018_04_13	11_26_40.507269:	:not connected	not connected	not connected	:None	None
2018_04_13	11_28_06.486737:	:47.646484375	29.1622847058	27.5807709623	:59.0	None
2018_04_13	11_29_32.922967:	:47.646484375	28.2965159594	26.9368359074	:None	38.5
2018_04_13	11_30_55.429134:	:47.646484375	28.2965159594	26.6556468758	:None	None
2018_04_13	11_32_21.264350:	:not connected	not connected	not connected	:None	None
2018_04_13	11_33_47.098464:	:47.32421875	28.1195496505	26.3712503649	:None	41.5
2018_04_13	11_35_10.426617:	:47.32421875	28.4721928963	28.6465945015	:75.5	47.0
2018_04_13	11_36_26.580779:	:47.32421875	32.879894837	32.5947238783	:None	26.6
2018_04_13	11_37_47.817086:	:47.32421875	34.7984437014	34.9743734073	:None	None
2018_04_13	11_39_13.612622:	:47.646484375	36.5916200898	37.6322775186	:42.8	44.8
2018_04_13	11_40_27.706310:	:47.32421875	37.3234896201	37.9382018509	:None	None
2018_04_13	11_41_53.512556:	:47.646484375	37.8365427848	38.1405801456	:None	66.5
2018_04_13	11_43_16.542564:	:48.291015625	38.1405801456	38.4418196166	:103.0	None
2018_04_13	11_44_41.062570:	:48.291015625	38.4418196166	38.6411105612	:None	107.0
2018_04_13	11_46_04.029984:	:47.96875	32.9743149255	38.5416176854	:None	106.4
2018_04_13	11_47_20.272642:	:not connected	not connected	not connected	:None	None
2018_04_13	11_48_45.381966:	:not connected	not connected	not connected	:None	None
2018_04_13	11_50_10.492612:	:47.32421875	26.843459261	26.5612071253	:None	None
2018_04_13	11_51_36.321719:	:47.646484375	26.5612071253	26.0835911788	:None	None
2018_04_13	11_53_02.164526:	:47.646484375	26.275729251	25.7926128483	:None	None
2018_04_13	11_54_27.992629:	:47.646484375	26.1798435527	25.4982575932	:None	None
2018_04_13	11_55_53.822632:	:47.32421875	26.0835911788	25.3993785669	:None	None
2018_04_13	11_57_19.656439:	:47.646484375	25.9869700218	25.2004662846	:None	None
2018_04_13	11_58_45.493037:	:47.32421875	25.9869700218	25.4982575932	:30.8	None
2018_04_13	12_00_05.805465:	:47.32421875	32.4030014966	33.4417100479	:39.4	72.0
2018_04_13	12_01_15.322624:	:not connected	not connected	not connected	:None	51.5
2018_04_13	12_02_41.167098:	:47.001953125	37.4267395716	35.7351557011	:42.5	None
2018_04_13	12_04_06.777351:	:47.001953125	29.9975148721	28.6465945015	:None	None
2018_04_13	12_05_32.622564:	:46.6796875	27.6713988589	27.3985025669	:None	None
2018_04_13	12_06_58.459129:	:46.6796875	26.7497302499	26.9368359074	:None	108.333333333
2018_04_13	12_08_20.822623:	:47.001953125	26.3712503649	26.5612071253	:None	None
2018_04_13	12_09_46.659450:	:46.6796875	25.9869700218	26.1798435527	:None	None
2018_04_13	12_11_12.472611:	:47.001953125	25.6948725356	25.8899779582	:None	None
2018_04_13	12_12_38.560254:	:47.001953125	25.4982575932	25.5967548471	:None	None
2018_04_13	12_14_04.414415:	:47.001953125	28.7333213867	28.7333213867	:None	101.0
2018_04_13	12_15_28.543610:	:47.001953125	33.34885318	33.2556867892	:75.4	151.0
2018_04_13	12_16_35.488275:	:47.001953125	35.8434089751	35.6265560166	:49.8	86.6666666667
2018_04_13	12_17_49.844612:	:47.32421875	37.3234896201	36.9072480572	:None	None
2018_04_13	12_19_16.382551:	:47.32421875	37.8365427848	37.5296683725	:63.3333333333	None
2018_04_13	12_20_38.404769:	:47.646484375	38.3417149486	38.0395471543	:33.0	None
2018_04_13	12_21_58.210295:	:47.646484375	38.6411105612	33.4417100479	:None	None
2018_04_13	12_23_24.041192:	:not connected	not connected	not connected	:None	None
2018_04_13	12_24_49.152680:	:not connected	not connected	not connected	:None	None
2018_04_13	12_26_14.272615:	:47.32421875	27.9412797223	26.843459261	:None	None
2018_04_13	12_27_40.082590:	:47.646484375	27.3985025669	26.4664089697	:None	None
2018_04_13	12_29_05.932032:	:47.646484375	27.1225400244	26.1798435527	:None	None
2018_04_13	12_30_31.425577:	:47.32421875	26.9368359074	26.0835911788	:None	None
2018_04_13	12_31_57.268220:	:47.646484375	26.843459261	25.8899779582	:None	None
2018_04_13	12_33_23.062621:	:47.646484375	28.8197346123	28.5595522458	:36.25	39.6666666667
2018_04_13	12_34_44.758330:	:47.646484375	34.263744088	34.8865508923	:None	None
2018_04_13	12_36_10.593250:	:47.96875	36.4857459375	36.9072480572	:None	None
2018_04_13	12_37_36.427025:	:47.96875	37.8365427848	38.2413022662	:None	None
2018_04_13	12_39_02.257745:	:47.96875	38.3417149486	38.7402996421	:None	None
2018_04_13	12_40_28.094632:	:47.96875	38.0395471543	38.2413022662	:122.8	None
2018_04_13	12_41_44.673460:	:47.646484375	38.4418196166	38.7402996421	:None	68.0
2018_04_13	12_43_10.601986:	:47.32421875	34.8865508923	34.9743734073	:130.0	None
2018_04_13	12_44_34.419269:	:47.32421875	29.0771092554	30.1011515286	:None	None
2018_04_13	12_46_00.271030:	:47.32421875	28.0305785374	28.4721928963	:None	None
2018_04_13	12_47_27.072503:	:47.646484375	27.6713988589	27.7616917171	:None	None
2018_04_13	12_48_52.915486:	:47.96875	27.3985025669	27.3068582897	:None	None
2018_04_13	12_50_18.695725:	:47.646484375	27.3068582897	27.1225400244	:None	None
2018_04_13	12_51_44.538444:	:47.32421875	27.2148714171	27.0298621724	:None	None
2018_04_13	12_53_10.390491:	:47.32421875	27.6713988589	27.1225400244	:76.0	76.0
2018_04_13	12_54_20.772619:	:47.32421875	31.819968818	31.7216319707	:None	None
2018_04_13	12_55_46.611601:	:47.646484375	34.5324001641	34.1736048363	:153.0	141.5
2018_04_13	12_57_04.022615:	:47.646484375	37.2199170124	36.0588829005	:None	None
2018_04_13	12_58_29.792554:	:47.646484375	38.4418196166	36.9072480572	:None	None
2018_04_13	12_59_55.642323:	:47.96875	38.6411105612	37.5296683725	:None	None
2018_04_13	13_01_21.494059:	:47.96875	38.7402996421	37.8365427848	:None	None
2018_04_13	13_02_47.302570:	:47.96875	38.7402996421	37.8365427848	:None	None
2018_04_13	13_04_13.132573:	:47.96875	38.9377719674	37.9382018509	:None	None
2018_04_13	13_05_38.976044:	:47.646484375	38.9377719674	38.0395471543	:None	None
2018_04_13	13_07_04.816796:	:47.646484375	39.0360579652	37.9382018509	:None	None
2018_04_13	13_08_31.082623:	:47.96875	39.0360579652	37.9382018509	:None	None
2018_04_13	13_09_56.902618:	:47.96875	38.5416176854	37.2199170124	:66.0	None
2018_04_13	13_11_22.655043:	:47.96875	38.8391863172	38.4418196166	:None	None
2018_04_13	13_12_48.490383:	:47.96875	39.0360579652	38.7402996421	:None	None
2018_04_13	13_14_14.307373:	:48.291015625	38.8391863172	38.8391863172	:53.0	65.0
2018_04_13	13_15_38.216705:	:47.96875	38.5416176854	38.8391863172	:None	None
2018_04_13	13_16_34.790372:	:not connected	not connected	not connected	:49.0	None
2018_04_13	13_18_00.967878:	:44.423828125	39.2317364517	39.2317364517	:None	None
2018_04_13	13_19_26.775814:	:44.423828125	39.0360579652	39.1340456746	:None	None
2018_04_13	13_20_52.615819:	:44.423828125	39.1340456746	39.1340456746	:None	None
2018_04_13	13_22_18.463714:	:44.423828125	39.1340456746	39.2317364517	:None	None
2018_04_13	13_23_44.265793:	:44.423828125	39.1340456746	39.4262325908	:None	None
2018_04_13	13_25_10.095803:	:44.74609375	39.1340456746	39.1340456746	:None	None
2018_04_13	13_26_35.916147:	:44.423828125	39.2317364517	39.1340456746	:None	None
2018_04_13	13_28_01.705794:	:44.74609375	39.0360579652	39.1340456746	:None	None
2018_04_13	13_29_27.560037:	:44.74609375	39.2317364517	39.1340456746	:None	None
2018_04_13	13_30_53.414950:	:44.74609375	39.1340456746	39.1340456746	:None	None
2018_04_13	13_32_19.225792:	:44.74609375	39.1340456746	38.7402996421	:None	None
2018_04_13	13_33_45.074481:	:45.068359375	39.0360579652	39.0360579652	:None	None
2018_04_13	13_35_10.933406:	:45.068359375	38.9377719674	39.0360579652	:None	None
2018_04_13	13_36_36.787536:	:45.068359375	38.9377719674	38.8391863172	:None	None
2018_04_13	15_17_20.574083:	:45.390625	38.9377719674	39.3291316439	:None	None
2018_04_13	15_18_46.413789:	:44.74609375	39.0360579652	39.1340456746	:None	None
2018_04_13	15_20_12.255070:	:46.03515625	38.9377719674	39.1340456746	:None	None
2018_04_13	15_21_38.107229:	:45.712890625	38.8391863172	38.9377719674	:None	None
2018_04_13	15_23_03.965181:	:45.712890625	38.8391863172	38.8391863172	:None	None
2018_04_13	15_24_29.764718:	:46.03515625	38.9377719674	38.8391863172	:None	None
2018_04_13	15_25_55.601549:	:46.03515625	38.7402996421	38.8391863172	:None	None
2018_04_13	15_27_21.443148:	:46.357421875	38.8391863172	38.7402996421	:None	None
2018_04_13	15_28_47.274743:	:46.357421875	38.6411105612	38.8391863172	:204.0	None
2018_04_13	15_30_10.912399:	:46.6796875	38.6411105612	38.9377719674	:None	None
2018_04_13	15_31_36.718479:	:45.712890625	38.9377719674	38.8391863172	:166.0	None
2018_04_13	15_33_01.016224:	:46.6796875	38.9377719674	38.9377719674	:None	None
2018_04_13	15_34_26.871982:	:not connected	not connected	not connected	:None	49.0
2018_04_13	15_35_48.830751:	:47.32421875	39.0360579652	38.8391863172	:None	None
2018_04_13	15_37_14.616384:	:not connected	not connected	not connected	:None	None
2018_04_13	15_38_41.094635:	:not connected	not connected	not connected	:None	None
2018_04_13	15_40_08.604601:	:not connected	not connected	not connected	:None	None
2018_04_13	15_41_33.724529:	:47.001953125	38.8391863172	38.6411105612	:None	None
2018_04_13	15_42_59.572369:	:47.96875	38.8391863172	38.5416176854	:None	41.0
2018_04_13	15_44_26.792953:	:47.32421875	39.0360579652	38.7402996421	:None	None
2018_04_13	15_45_52.895549:	:47.646484375	38.7402996421	38.8391863172	:None	None
2018_04_13	15_47_18.738725:	:47.001953125	38.7402996421	38.8391863172	:None	None
2018_04_13	15_48_44.524734:	:not connected	not connected	not connected	:None	None
2018_04_13	15_50_09.622819:	:not connected	not connected	not connected	:None	None
2018_04_13	15_51_34.728522:	:not connected	not connected	not connected	:None	None
2018_04_13	15_52_59.838816:	:not connected	not connected	not connected	:None	None
2018_04_13	15_54_24.947898:	:not connected	not connected	not connected	:None	None
2018_04_13	15_55_51.143342:	:48.291015625	38.7402996421	38.6411105612	:None	None
2018_04_13	15_56_57.399367:	:not connected	not connected	not connected	:47.0	None
2018_04_13	15_58_24.506328:	:45.712890625	36.0588829005	36.5916200898	:None	150.25
2018_04_13	15_59_43.110696:	:46.03515625	36.2729909056	36.8023695817	:33.0	79.6
2018_04_13	16_01_03.746326:	:46.03515625	36.6971607802	37.5296683725	:None	103.0
2018_04_13	15_56_57.734707:	:not connected	not connected	not connected	:None	None
2018_04_13	15_58_23.894628:	:47.001953125	36.5916200898	37.2199170124	:None	27.0
2018_04_13	15_59_48.957188:	:47.32421875	36.5916200898	37.3234896201	:None	None
2018_04_13	16_01_14.776860:	:47.646484375	36.5916200898	37.5296683725	:None	None
2018_04_13	16_02_40.547022:	:47.646484375	36.8023695817	37.4267395716	:None	None
2018_04_13	16_04_06.379132:	:47.32421875	36.8023695817	37.5296683725	:None	None
2018_04_13	16_05_32.165828:	:47.646484375	36.6971607802	37.3234896201	:None	None
